…
The input format for differential analysis data is as follows:

``` r
uniprotEnrich.demo.diff
```

    ## # A tibble: 2,000 × 2
    ##    Entry  Sig   
    ##    <chr>  <chr> 
    ##  1 Q0WLC6 Up    
    ##  2 O82533 NotSig
    ##  3 P0C2F5 NotSig
    ##  4 Q9C9L4 NotSig
    ##  5 Q9SMP2 NotSig
    ##  6 Q9M2Q6 NotSig
    ##  7 Q8LE43 NotSig
    ##  8 A4FVR1 NotSig
    ##  9 O65258 NotSig
    ## 10 Q680P8 NotSig
    ## # ℹ 1,990 more rows

The UniProt database format should include the following mandatory
columns(`Entry`,`Pathway`,`Gene Ontology (biological process)`,
`Gene Ontology (cellular component)`,`Gene Ontology (molecular function)`),
which are essential for the enrichment analysis:

``` r
uniprotEnrich.demo.library.uniprot
```

    ## # A tibble: 16,318 × 21
    ##    Entry      Reviewed `Entry Name` `Protein names` `Gene Names` Organism Length Gene Ontology (biolo…¹ Gene Ontology (cellu…² Gene Ontology (molec…³ `Gene Ontology (GO)`
    ##    <chr>      <chr>    <chr>        <chr>           <chr>        <chr>    <chr>  <chr>                  <chr>                  <chr>                  <chr>               
    ##  1 A0A0A7EPL0 reviewed PIAL1_ARATH  E4 SUMO-protei… PIAL1 EMB30… Arabido… 847    positive regulation o… nucleus [GO:0005634]   ligase activity [GO:0… nucleus [GO:0005634…
    ##  2 A0A178VEK7 reviewed DUO1_ARATH   Transcription … DUO1 MYB125… Arabido… 300    cell cycle G2/M phase… generative cell nucle… DNA-binding transcrip… generative cell nuc…
    ##  3 A0A178WF56 reviewed CSTM3_ARATH  Protein CYSTEI… CYSTM3 At1g… Arabido… 71     negative regulation o… cytoplasm [GO:0005737… <NA>                   cytoplasm [GO:00057…
    ##  4 A0A1I9LMX5 reviewed PCEP9_ARATH  Precursor of C… CEP9 At3g50… Arabido… 243    cellular response to … apoplast [GO:0048046]  hormone activity [GO:… apoplast [GO:004804…
    ##  5 A0A1I9LN01 reviewed LAF3_ARATH   Protein LONG A… LAF3 At3g55… Arabido… 583    de-etiolation [GO:000… membrane [GO:0016020]… hydrolase activity, a… membrane [GO:001602…
    ##  6 A0A1P8AQ95 reviewed STMP4_ARATH  Secreted trans… STMP4 At1g6… Arabido… 97     response to ethylene … apoplast [GO:0048046]… LRR domain binding [G… apoplast [GO:004804…
    ##  7 A0A1P8ASY1 reviewed JHS1_ARATH   DNA replicatio… JHS1 EMB241… Arabido… 1331   DNA damage response [… chromosome [GO:000569… 4 iron, 4 sulfur clus… chromosome [GO:0005…
    ##  8 A0A1P8AUY4 reviewed MDN1_ARATH   Midasin (AtMDN… MDN1 DSR1 A… Arabido… 5400   abscisic acid-activat… chloroplast envelope … ATP binding [GO:00055… chloroplast envelop…
    ##  9 A0A1P8AW69 reviewed KTN81_ARATH  Katanin p80 WD… KTN80.1 At1… Arabido… 1019   microtubule depolymer… cytoplasm [GO:0005737… microtubule binding [… cytoplasm [GO:00057…
    ## 10 A0JQ18     reviewed SOP14_ARATH  Serine rich en… PROSCOOP14 … Arabido… 73     defense response [GO:… apoplast [GO:0048046]… LRR domain binding [G… apoplast [GO:004804…
    ## # ℹ 16,308 more rows
    ## # ℹ abbreviated names: ¹​`Gene Ontology (biological process)`, ²​`Gene Ontology (cellular component)`, ³​`Gene Ontology (molecular function)`
    ## # ℹ 10 more variables: `Gene Ontology IDs` <chr>, BioGRID <chr>, CORUM <lgl>, ComplexPortal <chr>, DIP <chr>, ELM <chr>, IntAct <chr>, MINT <chr>, STRING <chr>,
    ## #   Pathway <chr>
…
    ## zcp: 'outputfile' already exists!All results have been saved to outputfile --zcp

``` r
tibble::as_tibble(result$all$pathway_enrich_result)
```

    ## # A tibble: 63 × 8
    ##    Pathway                                                    proteincounts.per.pahtway.all counts p_value   FDR Enrich_factor hited.proteins                        Type 
    ##    <chr>                                                                              <int>  <int>   <dbl> <dbl>         <dbl> <chr>                                 <chr>
    ##  1 Phospholipid metabolism                                                                4      2   0.763 0.876         0.5   A4GNA8/Q9SYC8                         Path…
    ##  2 phosphatidylethanolamine biosynthesis                                                  1      1   0.765 0.876         1     A4GNA8                                Path…
    ##  3 phosphatidylethanolamine from CDP-diacylglycerol: step 2/2                             1      1   0.765 0.876         1     A4GNA8                                Path…
    ##  4 Metabolic intermediate biosynthesis                                                    4      2   0.763 0.876         0.5   P43256/Q8S4Y1                         Path…
    ##  5 (R)-mevalonate biosynthesis                                                            2      2   0.945 0.975         1     P43256/Q8S4Y1                         Path…
    ##  6 (R)-mevalonate from acetyl-CoA: step 3/3                                               1      1   0.765 0.876         1     P43256                                Path…
    ##  7 Carbohydrate metabolism                                                                4      1   0.342 0.876         0.25  P93033                                Path…
    ##  8 tricarboxylic acid cycle                                                               3      1   0.447 0.876         0.333 P93033                                Path…
    ##  9 (S)-malate from fumarate: step 1/1                                                     1      1   0.765 0.876         1     P93033                                Path…
    ## 10 Protein modification                                                                  75     19   0.604 0.876         0.253 Q0WX00/Q8VZS9/Q93Z16/Q9LFU0/Q9XGM8/Q… Path…
    ## # ℹ 53 more rows
…
